{
  "actions": [],
  "autoname": "format:OSU-{#####}",
  "creation": "2024-03-10 21:25:33.948342",
  "default_view": "List",
  "doctype": "DocType",
  "editable_grid": 1,
  "engine": "InnoDB",
  "field_order": [
    "serial_no",
    "software_version",
    "hardware_version",
    "column_break_fdqs",
    "customer",
    "warehouse"
  ],
  "fields": [
    {
      "fieldname": "serial_no",
      "fieldtype": "Link",
      "in_list_view": 1,
      "in_standard_filter": 1,
      "label": "Serial No",
      "options": "Serial No",
      "read_only": 1,
      "reqd": 1
    },
    {
      "fieldname": "software_version",
      "fieldtype": "Data",
      "in_list_view": 1,
      "label": "Software Version",
      "read_only": 1
    },
    {
      "fieldname": "hardware_version",
      "fieldtype": "Data",
      "in_list_view": 1,
      "label": "Hardware Version",
      "read_only": 1
    },
    {
      "fieldname": "customer",
      "fieldtype": "Link",
      "label": "Customer",
      "options": "Customer",
      "read_only": 1
    },
    {
      "fieldname": "warehouse",
      "fieldtype": "Link",
      "label": "Warehouse",
      "options": "Warehouse",
      "read_only": 1
    },
    {
      "fieldname": "column_break_fdqs",
      "fieldtype": "Column Break"
    }
  ],
  "hide_toolbar": 1,
  "in_create": 1,
  "index_web_pages_for_search": 1,
  "links": [],
  "modified": "2024-05-07 22:29:12.224802",
  "modified_by": "Administrator",
  "module": "Micropace ERP",
  "name": "OneStim Update",
  "naming_rule": "Expression",
  "owner": "Administrator",
  "permissions": [
    {
      "create": 1,
      "delete": 1,
      "email": 1,
      "export": 1,
      "print": 1,
      "read": 1,
      "report": 1,
      "role": "System Manager",
      "share": 1,
      "write": 1
    }
  ],
  "read_only": 1,
  "sort_field": "modified",
  "sort_order": "DESC",
  "states": [],
  "track_changes": 1
}
